…
``` r
dn_lq_nc_minidist <- dn_lq_nc %>%
  group_by(address.x) %>%
  summarise(
    mini_dist = min(distance, na.rm = TRUE),
    .groups = "drop"
  )
dn_lq_nc_minidist
```

    ## # A tibble: 28 × 2
    ##    address.x                 mini_dist
    ##    <chr>                         <dbl>
    ##  1 1 Regent Park Boulevard       108. 
    ##  2 101 Wintergreen Dr            120. 
    ##  3 103 Sedgehill Dr               26.7
    ##  4 1043 Jimmie Kerr Road          36.1
    ##  5 1201 S College Road           188. 
    ##  6 1209 Burkemount Avenue         39.1
    ##  7 1493 Us Hwy 74-A Bypass        70.1
    ##  8 1524 Dabney Dr                 59.5
    ##  9 1550 Four Seasons             115. 
    ## 10 1800 Princeton-Kenly Road      55.9
    ## # ℹ 18 more rows
…
``` r
dn_lq_tx_minidist <- dn_lq_tx %>%
  group_by(address.x) %>%
  summarise(
    mini_dist = min(distance, na.rm = TRUE),
    .groups = "drop"
  )
dn_lq_tx_minidist
```

    ## # A tibble: 200 × 2
    ##    address.x             mini_dist
    ##    <chr>                     <dbl>
    ##  1 100 Cottonwood           33.6  
    ##  2 100 E Pinehurst           1.39 
    ##  3 100 Us Highway 79 S      33.9  
    ##  4 101 N Fm 707             10.3  
    ##  5 1011 Beltway Parkway     14.0  
    ##  6 1015 Spur 350 West        1.74 
    ##  7 1015 West Main St         1.10 
    ##  8 10367 Highway 59         37.6  
    ##  9 10433 N Central Expwy     0.618
    ## 10 105 W 42nd St             6.88 
    ## # ℹ 190 more rows
…
``` r
dn_lq_ny_minidist <- dn_lq_ny %>%
  group_by(address.x) %>%
  summarise(
    mini_dist = min(distance, na.rm = TRUE),
    .groups = "drop"
  )
dn_lq_ny_minidist
```

    ## # A tibble: 56 × 2
    ##    address.x             mini_dist
    ##    <chr>                     <dbl>
    ##  1 1 River St                56.0 
    ##  2 103 Elwood Davis Road     47.1 
    ##  3 10390 Bennet Road         74.4 
    ##  4 1078 Glenwood Avenue       6.4 
    ##  5 114 Wolf Road              5.4 
    ##  6 1142 Arsenal St           99.0 
    ##  7 1143 Deer Park Ave        19.6 
    ##  8 118 Victory Highway       93.8 
    ##  9 1250 Upper Front St        7.16
    ## 10 126 Troy Rd               15.0 
    ## # ℹ 46 more rows
…
